<?xml version="1.0" encoding="utf-8"?>
<!DOCTYPE eagle SYSTEM "eagle.dtd">
<eagle version="6.5.0">
<drawing>
<settings>
<setting alwaysvectorfont="no"/>
<setting verticaltext="up"/>
</settings>
<grid distance="0.1" unitdist="inch" unit="inch" style="lines" multiple="1" display="no" altdistance="0.01" altunitdist="inch" altunit="inch"/>
<layers>
<layer number="1" name="Top" color="4" fill="1" visible="no" active="no"/>
<layer number="16" name="Bottom" color="1" fill="1" visible="no" active="no"/>
<layer number="17" name="Pads" color="2" fill="1" visible="no" active="no"/>
<layer number="18" name="Vias" color="2" fill="1" visible="no" active="no"/>
<layer number="19" name="Unrouted" color="6" fill="1" visible="no" active="no"/>
<layer number="20" name="Dimension" color="15" fill="1" visible="no" active="no"/>
<layer number="21" name="tPlace" color="7" fill="1" visible="no" active="no"/>
<layer number="22" name="bPlace" color="7" fill="1" visible="no" active="no"/>
<layer number="23" name="tOrigins" color="15" fill="1" visible="no" active="no"/>
<layer number="24" name="bOrigins" color="15" fill="1" visible="no" active="no"/>
<layer number="25" name="tNames" color="7" fill="1" visible="no" active="no"/>
<layer number="26" name="bNames" color="7" fill="1" visible="no" active="no"/>
<layer number="27" name="tValues" color="7" fill="1" visible="no" active="no"/>
<layer number="28" name="bValues" color="7" fill="1" visible="no" active="no"/>
<layer number="29" name="tStop" color="7" fill="3" visible="no" active="no"/>
<layer number="30" name="bStop" color="7" fill="6" visible="no" active="no"/>
<layer number="31" name="tCream" color="7" fill="4" visible="no" active="no"/>
<layer number="32" name="bCream" color="7" fill="5" visible="no" active="no"/>
<layer number="33" name="tFinish" color="6" fill="3" visible="no" active="no"/>
<layer number="34" name="bFinish" color="6" fill="6" visible="no" active="no"/>
<layer number="35" name="tGlue" color="7" fill="4" visible="no" active="no"/>
<layer number="36" name="bGlue" color="7" fill="5" visible="no" active="no"/>
<layer number="37" name="tTest" color="7" fill="1" visible="no" active="no"/>
<layer number="38" name="bTest" color="7" fill="1" visible="no" active="no"/>
<layer number="39" name="tKeepout" color="4" fill="11" visible="no" active="no"/>
<layer number="40" name="bKeepout" color="1" fill="11" visible="no" active="no"/>
<layer number="41" name="tRestrict" color="4" fill="10" visible="no" active="no"/>
<layer number="42" name="bRestrict" color="1" fill="10" visible="no" active="no"/>
<layer number="43" name="vRestrict" color="2" fill="10" visible="no" active="no"/>
<layer number="44" name="Drills" color="7" fill="1" visible="no" active="no"/>
<layer number="45" name="Holes" color="7" fill="1" visible="no" active="no"/>
<layer number="46" name="Milling" color="3" fill="1" visible="no" active="no"/>
<layer number="47" name="Measures" color="7" fill="1" visible="no" active="no"/>
<layer number="48" name="Document" color="7" fill="1" visible="no" active="no"/>
<layer number="49" name="Reference" color="7" fill="1" visible="no" active="no"/>
<layer number="51" name="tDocu" color="7" fill="1" visible="no" active="no"/>
<layer number="52" name="bDocu" color="7" fill="1" visible="no" active="no"/>
<layer number="91" name="Nets" color="2" fill="1" visible="yes" active="yes"/>
<layer number="92" name="Busses" color="1" fill="1" visible="yes" active="yes"/>
<layer number="93" name="Pins" color="2" fill="1" visible="no" active="yes"/>
<layer number="94" name="Symbols" color="4" fill="1" visible="yes" active="yes"/>
<layer number="95" name="Names" color="7" fill="1" visible="yes" active="yes"/>
<layer number="96" name="Values" color="7" fill="1" visible="yes" active="yes"/>
<layer number="97" name="Info" color="7" fill="1" visible="yes" active="yes"/>
<layer number="98" name="Guide" color="6" fill="1" visible="yes" active="yes"/>
</layers>
<schematic xreflabel="%F%N/%S.%C%R" xrefpart="/%S.%C%R">
<libraries>
<library name="con-lstb">
<packages>
<package name="MA13-2">
<description>&lt;b&gt;PIN HEADER&lt;/b&gt;</description>
<wire x1="-15.875" y1="2.54" x2="-14.605" y2="2.54" width="0.1524" layer="21"/>
<wire x1="-14.605" y1="2.54" x2="-13.97" y2="1.905" width="0.1524" layer="21"/>
<wire x1="-13.97" y1="1.905" x2="-13.335" y2="2.54" width="0.1524" layer="21"/>
<wire x1="-13.335" y1="2.54" x2="-12.065" y2="2.54" width="0.1524" layer="21"/>
<wire x1="-12.065" y1="2.54" x2="-11.43" y2="1.905" width="0.1524" layer="21"/>
<wire x1="-15.875" y1="2.54" x2="-16.51" y2="1.905" width="0.1524" layer="21"/>
<wire x1="-11.43" y1="1.905" x2="-10.795" y2="2.54" width="0.1524" layer="21"/>
<wire x1="-10.795" y1="2.54" x2="-9.525" y2="2.54" width="0.1524" layer="21"/>
<wire x1="-9.525" y1="2.54" x2="-8.89" y2="1.905" width="0.1524" layer="21"/>
<wire x1="-8.255" y1="2.54" x2="-6.985" y2="2.54" width="0.1524" layer="21"/>
<wire x1="-6.985" y1="2.54" x2="-6.35" y2="1.905" width="0.1524" layer="21"/>
<wire x1="-6.35" y1="1.905" x2="-5.715" y2="2.54" width="0.1524" layer="21"/>
<wire x1="-5.715" y1="2.54" x2="-4.445" y2="2.54" width="0.1524" layer="21"/>
<wire x1="-4.445" y1="2.54" x2="-3.81" y2="1.905" width="0.1524" layer="21"/>
<wire x1="-8.255" y1="2.54" x2="-8.89" y2="1.905" width="0.1524" layer="21"/>
<wire x1="-3.81" y1="1.905" x2="-3.175" y2="2.54" width="0.1524" layer="21"/>
<wire x1="-3.175" y1="2.54" x2="-1.905" y2="2.54" width="0.1524" layer="21"/>
<wire x1="-1.905" y1="2.54" x2="-1.27" y2="1.905" width="0.1524" layer="21"/>
<wire x1="-13.97" y1="-1.905" x2="-14.605" y2="-2.54" width="0.1524" layer="21"/>
<wire x1="-11.43" y1="-1.905" x2="-12.065" y2="-2.54" width="0.1524" layer="21"/>
<wire x1="-12.065" y1="-2.54" x2="-13.335" y2="-2.54" width="0.1524" layer="21"/>
<wire x1="-13.335" y1="-2.54" x2="-13.97" y2="-1.905" width="0.1524" layer="21"/>
<wire x1="-16.51" y1="1.905" x2="-16.51" y2="-1.905" width="0.1524" layer="21"/>
<wire x1="-16.51" y1="-1.905" x2="-15.875" y2="-2.54" width="0.1524" layer="21"/>
<wire x1="-14.605" y1="-2.54" x2="-15.875" y2="-2.54" width="0.1524" layer="21"/>
<wire x1="-8.89" y1="-1.905" x2="-9.525" y2="-2.54" width="0.1524" layer="21"/>
<wire x1="-9.525" y1="-2.54" x2="-10.795" y2="-2.54" width="0.1524" layer="21"/>
<wire x1="-10.795" y1="-2.54" x2="-11.43" y2="-1.905" width="0.1524" layer="21"/>
<wire x1="-6.35" y1="-1.905" x2="-6.985" y2="-2.54" width="0.1524" layer="21"/>
<wire x1="-3.81" y1="-1.905" x2="-4.445" y2="-2.54" width="0.1524" layer="21"/>
<wire x1="-4.445" y1="-2.54" x2="-5.715" y2="-2.54" width="0.1524" layer="21"/>
<wire x1="-5.715" y1="-2.54" x2="-6.35" y2="-1.905" width="0.1524" layer="21"/>
<wire x1="-8.89" y1="-1.905" x2="-8.255" y2="-2.54" width="0.1524" layer="21"/>
<wire x1="-6.985" y1="-2.54" x2="-8.255" y2="-2.54" width="0.1524" layer="21"/>
<wire x1="-1.27" y1="-1.905" x2="-1.905" y2="-2.54" width="0.1524" layer="21"/>
<wire x1="-1.905" y1="-2.54" x2="-3.175" y2="-2.54" width="0.1524" layer="21"/>
<wire x1="-3.175" y1="-2.54" x2="-3.81" y2="-1.905" width="0.1524" layer="21"/>
<wire x1="0.635" y1="2.54" x2="1.27" y2="1.905" width="0.1524" layer="21"/>
<wire x1="-0.635" y1="2.54" x2="0.635" y2="2.54" width="0.1524" layer="21"/>
<wire x1="-1.27" y1="1.905" x2="-0.635" y2="2.54" width="0.1524" layer="21"/>
<wire x1="-0.635" y1="-2.54" x2="-1.27" y2="-1.905" width="0.1524" layer="21"/>
<wire x1="0.635" y1="-2.54" x2="-0.635" y2="-2.54" width="0.1524" layer="21"/>
<wire x1="1.27" y1="-1.905" x2="0.635" y2="-2.54" width="0.1524" layer="21"/>
<wire x1="1.905" y1="2.54" x2="3.175" y2="2.54" width="0.1524" layer="21"/>
<wire x1="3.175" y1="2.54" x2="3.81" y2="1.905" width="0.1524" layer="21"/>
<wire x1="3.81" y1="1.905" x2="4.445" y2="2.54" width="0.1524" layer="21"/>
<wire x1="4.445" y1="2.54" x2="5.715" y2="2.54" width="0.1524" layer="21"/>
<wire x1="5.715" y1="2.54" x2="6.35" y2="1.905" width="0.1524" layer="21"/>
<wire x1="1.905" y1="2.54" x2="1.27" y2="1.905" width="0.1524" layer="21"/>
<wire x1="6.35" y1="1.905" x2="6.985" y2="2.54" width="0.1524" layer="21"/>
<wire x1="6.985" y1="2.54" x2="8.255" y2="2.54" width="0.1524" layer="21"/>
<wire x1="8.255" y1="2.54" x2="8.89" y2="1.905" width="0.1524" layer="21"/>
<wire x1="9.525" y1="2.54" x2="10.795" y2="2.54" width="0.1524" layer="21"/>
<wire x1="10.795" y1="2.54" x2="11.43" y2="1.905" width="0.1524" layer="21"/>
<wire x1="11.43" y1="1.905" x2="12.065" y2="2.54" width="0.1524" layer="21"/>
<wire x1="12.065" y1="2.54" x2="13.335" y2="2.54" width="0.1524" layer="21"/>
<wire x1="13.335" y1="2.54" x2="13.97" y2="1.905" width="0.1524" layer="21"/>
<wire x1="9.525" y1="2.54" x2="8.89" y2="1.905" width="0.1524" layer="21"/>
<wire x1="13.97" y1="1.905" x2="14.605" y2="2.54" width="0.1524" layer="21"/>
<wire x1="14.605" y1="2.54" x2="15.875" y2="2.54" width="0.1524" layer="21"/>
<wire x1="3.81" y1="-1.905" x2="3.175" y2="-2.54" width="0.1524" layer="21"/>
<wire x1="6.35" y1="-1.905" x2="5.715" y2="-2.54" width="0.1524" layer="21"/>
<wire x1="5.715" y1="-2.54" x2="4.445" y2="-2.54" width="0.1524" layer="21"/>
<wire x1="4.445" y1="-2.54" x2="3.81" y2="-1.905" width="0.1524" layer="21"/>
<wire x1="1.27" y1="-1.905" x2="1.905" y2="-2.54" width="0.1524" layer="21"/>
<wire x1="3.175" y1="-2.54" x2="1.905" y2="-2.54" width="0.1524" layer="21"/>
<wire x1="8.89" y1="-1.905" x2="8.255" y2="-2.54" width="0.1524" layer="21"/>
<wire x1="8.255" y1="-2.54" x2="6.985" y2="-2.54" width="0.1524" layer="21"/>
<wire x1="6.985" y1="-2.54" x2="6.35" y2="-1.905" width="0.1524" layer="21"/>
<wire x1="11.43" y1="-1.905" x2="10.795" y2="-2.54" width="0.1524" layer="21"/>
<wire x1="13.97" y1="-1.905" x2="13.335" y2="-2.54" width="0.1524" layer="21"/>
<wire x1="13.335" y1="-2.54" x2="12.065" y2="-2.54" width="0.1524" layer="21"/>
<wire x1="12.065" y1="-2.54" x2="11.43" y2="-1.905" width="0.1524" layer="21"/>
<wire x1="8.89" y1="-1.905" x2="9.525" y2="-2.54" width="0.1524" layer="21"/>
<wire x1="10.795" y1="-2.54" x2="9.525" y2="-2.54" width="0.1524" layer="21"/>
<wire x1="15.875" y1="-2.54" x2="14.605" y2="-2.54" width="0.1524" layer="21"/>
<wire x1="14.605" y1="-2.54" x2="13.97" y2="-1.905" width="0.1524" layer="21"/>
<wire x1="16.51" y1="1.905" x2="16.51" y2="-1.905" width="0.1524" layer="21"/>
<wire x1="15.875" y1="2.54" x2="16.51" y2="1.905" width="0.1524" layer="21"/>
<wire x1="16.51" y1="-1.905" x2="15.875" y2="-2.54" width="0.1524" layer="21"/>
<pad name="1" x="-15.24" y="-1.27" drill="1.016" shape="octagon"/>
<pad name="3" x="-12.7" y="-1.27" drill="1.016" shape="octagon"/>
<pad name="5" x="-10.16" y="-1.27" drill="1.016" shape="octagon"/>
<pad name="7" x="-7.62" y="-1.27" drill="1.016" shape="octagon"/>
<pad name="9" x="-5.08" y="-1.27" drill="1.016" shape="octagon"/>
<pad name="11" x="-2.54" y="-1.27" drill="1.016" shape="octagon"/>
<pad name="2" x="-15.24" y="1.27" drill="1.016" shape="octagon"/>
<pad name="4" x="-12.7" y="1.27" drill="1.016" shape="octagon"/>
<pad name="6" x="-10.16" y="1.27" drill="1.016" shape="octagon"/>
<pad name="8" x="-7.62" y="1.27" drill="1.016" shape="octagon"/>
<pad name="10" x="-5.08" y="1.27" drill="1.016" shape="octagon"/>
<pad name="12" x="-2.54" y="1.27" drill="1.016" shape="octagon"/>
<pad name="13" x="0" y="-1.27" drill="1.016" shape="octagon"/>
<pad name="14" x="0" y="1.27" drill="1.016" shape="octagon"/>
<pad name="15" x="2.54" y="-1.27" drill="1.016" shape="octagon"/>
<pad name="17" x="5.08" y="-1.27" drill="1.016" shape="octagon"/>
<pad name="19" x="7.62" y="-1.27" drill="1.016" shape="octagon"/>
<pad name="21" x="10.16" y="-1.27" drill="1.016" shape="octagon"/>
<pad name="23" x="12.7" y="-1.27" drill="1.016" shape="octagon"/>
<pad name="25" x="15.24" y="-1.27" drill="1.016" shape="octagon"/>
<pad name="16" x="2.54" y="1.27" drill="1.016" shape="octagon"/>
<pad name="18" x="5.08" y="1.27" drill="1.016" shape="octagon"/>
<pad name="20" x="7.62" y="1.27" drill="1.016" shape="octagon"/>
<pad name="22" x="10.16" y="1.27" drill="1.016" shape="octagon"/>
<pad name="24" x="12.7" y="1.27" drill="1.016" shape="octagon"/>
<pad name="26" x="15.24" y="1.27" drill="1.016" shape="octagon"/>
<text x="-15.621" y="-4.191" size="1.27" layer="21" ratio="10">1</text>
<text x="-16.51" y="2.921" size="1.27" layer="25" ratio="10">&gt;NAME</text>
<text x="7.62" y="-4.191" size="1.27" layer="27" ratio="10">&gt;VALUE</text>
<text x="14.097" y="2.921" size="1.27" layer="21" ratio="10">26</text>
<rectangle x1="-12.954" y1="-1.524" x2="-12.446" y2="-1.016" layer="51"/>
<rectangle x1="-15.494" y1="-1.524" x2="-14.986" y2="-1.016" layer="51"/>
<rectangle x1="-10.414" y1="-1.524" x2="-9.906" y2="-1.016" layer="51"/>
<rectangle x1="-5.334" y1="-1.524" x2="-4.826" y2="-1.016" layer="51"/>
<rectangle x1="-7.874" y1="-1.524" x2="-7.366" y2="-1.016" layer="51"/>
<rectangle x1="-2.794" y1="-1.524" x2="-2.286" y2="-1.016" layer="51"/>
<rectangle x1="-15.494" y1="1.016" x2="-14.986" y2="1.524" layer="51"/>
<rectangle x1="-12.954" y1="1.016" x2="-12.446" y2="1.524" layer="51"/>
<rectangle x1="-10.414" y1="1.016" x2="-9.906" y2="1.524" layer="51"/>
<rectangle x1="-7.874" y1="1.016" x2="-7.366" y2="1.524" layer="51"/>
<rectangle x1="-5.334" y1="1.016" x2="-4.826" y2="1.524" layer="51"/>
<rectangle x1="-2.794" y1="1.016" x2="-2.286" y2="1.524" layer="51"/>
<rectangle x1="-0.254" y1="1.016" x2="0.254" y2="1.524" layer="51"/>
<rectangle x1="-0.254" y1="-1.524" x2="0.254" y2="-1.016" layer="51"/>
<rectangle x1="4.826" y1="-1.524" x2="5.334" y2="-1.016" layer="51"/>
<rectangle x1="2.286" y1="-1.524" x2="2.794" y2="-1.016" layer="51"/>
<rectangle x1="7.366" y1="-1.524" x2="7.874" y2="-1.016" layer="51"/>
<rectangle x1="12.446" y1="-1.524" x2="12.954" y2="-1.016" layer="51"/>
<rectangle x1="9.906" y1="-1.524" x2="10.414" y2="-1.016" layer="51"/>
<rectangle x1="14.986" y1="-1.524" x2="15.494" y2="-1.016" layer="51"/>
<rectangle x1="2.286" y1="1.016" x2="2.794" y2="1.524" layer="51"/>
<rectangle x1="4.826" y1="1.016" x2="5.334" y2="1.524" layer="51"/>
<rectangle x1="7.366" y1="1.016" x2="7.874" y2="1.524" layer="51"/>
<rectangle x1="9.906" y1="1.016" x2="10.414" y2="1.524" layer="51"/>
<rectangle x1="12.446" y1="1.016" x2="12.954" y2="1.524" layer="51"/>
<rectangle x1="14.986" y1="1.016" x2="15.494" y2="1.524" layer="51"/>
</package>
<package name="MA10-2">
<description>&lt;b&gt;PIN HEADER&lt;/b&gt;</description>
<wire x1="-12.065" y1="2.54" x2="-10.795" y2="2.54" width="0.1524" layer="21"/>
<wire x1="-10.795" y1="2.54" x2="-10.16" y2="1.905" width="0.1524" layer="21"/>
<wire x1="-10.16" y1="1.905" x2="-9.525" y2="2.54" width="0.1524" layer="21"/>
<wire x1="-9.525" y1="2.54" x2="-8.255" y2="2.54" width="0.1524" layer="21"/>
<wire x1="-8.255" y1="2.54" x2="-7.62" y2="1.905" width="0.1524" layer="21"/>
<wire x1="-12.065" y1="2.54" x2="-12.7" y2="1.905" width="0.1524" layer="21"/>
<wire x1="-7.62" y1="1.905" x2="-6.985" y2="2.54" width="0.1524" layer="21"/>
<wire x1="-6.985" y1="2.54" x2="-5.715" y2="2.54" width="0.1524" layer="21"/>
<wire x1="-5.715" y1="2.54" x2="-5.08" y2="1.905" width="0.1524" layer="21"/>
<wire x1="-4.445" y1="2.54" x2="-3.175" y2="2.54" width="0.1524" layer="21"/>
<wire x1="-3.175" y1="2.54" x2="-2.54" y2="1.905" width="0.1524" layer="21"/>
<wire x1="-2.54" y1="1.905" x2="-1.905" y2="2.54" width="0.1524" layer="21"/>
<wire x1="-1.905" y1="2.54" x2="-0.635" y2="2.54" width="0.1524" layer="21"/>
<wire x1="-0.635" y1="2.54" x2="0" y2="1.905" width="0.1524" layer="21"/>
<wire x1="-4.445" y1="2.54" x2="-5.08" y2="1.905" width="0.1524" layer="21"/>
<wire x1="0" y1="1.905" x2="0.635" y2="2.54" width="0.1524" layer="21"/>
<wire x1="0.635" y1="2.54" x2="1.905" y2="2.54" width="0.1524" layer="21"/>
<wire x1="1.905" y1="2.54" x2="2.54" y2="1.905" width="0.1524" layer="21"/>
<wire x1="-10.16" y1="-1.905" x2="-10.795" y2="-2.54" width="0.1524" layer="21"/>
<wire x1="-7.62" y1="-1.905" x2="-8.255" y2="-2.54" width="0.1524" layer="21"/>
<wire x1="-8.255" y1="-2.54" x2="-9.525" y2="-2.54" width="0.1524" layer="21"/>
<wire x1="-9.525" y1="-2.54" x2="-10.16" y2="-1.905" width="0.1524" layer="21"/>
<wire x1="-12.7" y1="1.905" x2="-12.7" y2="-1.905" width="0.1524" layer="21"/>
<wire x1="-12.7" y1="-1.905" x2="-12.065" y2="-2.54" width="0.1524" layer="21"/>
<wire x1="-10.795" y1="-2.54" x2="-12.065" y2="-2.54" width="0.1524" layer="21"/>
<wire x1="-5.08" y1="-1.905" x2="-5.715" y2="-2.54" width="0.1524" layer="21"/>
<wire x1="-5.715" y1="-2.54" x2="-6.985" y2="-2.54" width="0.1524" layer="21"/>
<wire x1="-6.985" y1="-2.54" x2="-7.62" y2="-1.905" width="0.1524" layer="21"/>
<wire x1="-2.54" y1="-1.905" x2="-3.175" y2="-2.54" width="0.1524" layer="21"/>
<wire x1="0" y1="-1.905" x2="-0.635" y2="-2.54" width="0.1524" layer="21"/>
<wire x1="-0.635" y1="-2.54" x2="-1.905" y2="-2.54" width="0.1524" layer="21"/>
<wire x1="-1.905" y1="-2.54" x2="-2.54" y2="-1.905" width="0.1524" layer="21"/>
<wire x1="-5.08" y1="-1.905" x2="-4.445" y2="-2.54" width="0.1524" layer="21"/>
<wire x1="-3.175" y1="-2.54" x2="-4.445" y2="-2.54" width="0.1524" layer="21"/>
<wire x1="2.54" y1="-1.905" x2="1.905" y2="-2.54" width="0.1524" layer="21"/>
<wire x1="1.905" y1="-2.54" x2="0.635" y2="-2.54" width="0.1524" layer="21"/>
<wire x1="0.635" y1="-2.54" x2="0" y2="-1.905" width="0.1524" layer="21"/>
<wire x1="3.175" y1="2.54" x2="4.445" y2="2.54" width="0.1524" layer="21"/>
<wire x1="4.445" y1="2.54" x2="5.08" y2="1.905" width="0.1524" layer="21"/>
<wire x1="5.08" y1="1.905" x2="5.715" y2="2.54" width="0.1524" layer="21"/>
<wire x1="12.065" y1="2.54" x2="12.7" y2="1.905" width="0.1524" layer="21"/>
<wire x1="3.175" y1="2.54" x2="2.54" y2="1.905" width="0.1524" layer="21"/>
<wire x1="12.7" y1="1.905" x2="12.7" y2="-1.905" width="0.1524" layer="21"/>
<wire x1="5.08" y1="-1.905" x2="4.445" y2="-2.54" width="0.1524" layer="21"/>
<wire x1="12.7" y1="-1.905" x2="12.065" y2="-2.54" width="0.1524" layer="21"/>
<wire x1="5.715" y1="-2.54" x2="5.08" y2="-1.905" width="0.1524" layer="21"/>
<wire x1="2.54" y1="-1.905" x2="3.175" y2="-2.54" width="0.1524" layer="21"/>
<wire x1="4.445" y1="-2.54" x2="3.175" y2="-2.54" width="0.1524" layer="21"/>
<wire x1="5.715" y1="-2.54" x2="6.985" y2="-2.54" width="0.1524" layer="21"/>
<wire x1="7.62" y1="-1.905" x2="6.985" y2="-2.54" width="0.1524" layer="21"/>
<wire x1="7.62" y1="-1.905" x2="8.255" y2="-2.54" width="0.1524" layer="21"/>
<wire x1="8.255" y1="-2.54" x2="9.525" y2="-2.54" width="0.1524" layer="21"/>
<wire x1="10.16" y1="-1.905" x2="9.525" y2="-2.54" width="0.1524" layer="21"/>
<wire x1="10.16" y1="-1.905" x2="10.795" y2="-2.54" width="0.1524" layer="21"/>
<wire x1="10.795" y1="-2.54" x2="12.065" y2="-2.54" width="0.1524" layer="21"/>
<wire x1="5.715" y1="2.54" x2="6.985" y2="2.54" width="0.1524" layer="21"/>
<wire x1="7.62" y1="1.905" x2="6.985" y2="2.54" width="0.1524" layer="21"/>
<wire x1="7.62" y1="1.905" x2="8.255" y2="2.54" width="0.1524" layer="21"/>
<wire x1="8.255" y1="2.54" x2="9.525" y2="2.54" width="0.1524" layer="21"/>
<wire x1="10.16" y1="1.905" x2="9.525" y2="2.54" width="0.1524" layer="21"/>
<wire x1="10.16" y1="1.905" x2="10.795" y2="2.54" width="0.1524" layer="21"/>
<wire x1="10.795" y1="2.54" x2="12.065" y2="2.54" width="0.1524" layer="21"/>
<pad name="1" x="-11.43" y="-1.27" drill="1.016" shape="octagon"/>
<pad name="3" x="-8.89" y="-1.27" drill="1.016" shape="octagon"/>
<pad name="5" x="-6.35" y="-1.27" drill="1.016" shape="octagon"/>
<pad name="7" x="-3.81" y="-1.27" drill="1.016" shape="octagon"/>
<pad name="9" x="-1.27" y="-1.27" drill="1.016" shape="octagon"/>
<pad name="11" x="1.27" y="-1.27" drill="1.016" shape="octagon"/>
<pad name="2" x="-11.43" y="1.27" drill="1.016" shape="octagon"/>
<pad name="4" x="-8.89" y="1.27" drill="1.016" shape="octagon"/>
<pad name="6" x="-6.35" y="1.27" drill="1.016" shape="octagon"/>
<pad name="8" x="-3.81" y="1.27" drill="1.016" shape="octagon"/>
<pad name="10" x="-1.27" y="1.27" drill="1.016" shape="octagon"/>
<pad name="12" x="1.27" y="1.27" drill="1.016" shape="octagon"/>
<pad name="13" x="3.81" y="-1.27" drill="1.016" shape="octagon"/>
<pad name="15" x="6.35" y="-1.27" drill="1.016" shape="octagon"/>
<pad name="14" x="3.81" y="1.27" drill="1.016" shape="octagon"/>
<pad name="16" x="6.35" y="1.27" drill="1.016" shape="octagon"/>
<pad name="17" x="8.89" y="-1.27" drill="1.016" shape="octagon"/>
<pad name="18" x="8.89" y="1.27" drill="1.016" shape="octagon"/>
<pad name="19" x="11.43" y="-1.27" drill="1.016" shape="octagon"/>
<pad name="20" x="11.43" y="1.27" drill="1.016" shape="octagon"/>
<text x="-11.938" y="-4.191" size="1.27" layer="21" ratio="10">1</text>
<text x="-12.7" y="2.921" size="1.27" layer="25" ratio="10">&gt;NAME</text>
<text x="2.54" y="-4.191" size="1.27" layer="27" ratio="10">&gt;VALUE</text>
<text x="10.16" y="2.921" size="1.27" layer="21" ratio="10">20</text>
<rectangle x1="-9.144" y1="-1.524" x2="-8.636" y2="-1.016" layer="51"/>
<rectangle x1="-11.684" y1="-1.524" x2="-11.176" y2="-1.016" layer="51"/>
<rectangle x1="-6.604" y1="-1.524" x2="-6.096" y2="-1.016" layer="51"/>
<rectangle x1="-1.524" y1="-1.524" x2="-1.016" y2="-1.016" layer="51"/>
<rectangle x1="-4.064" y1="-1.524" x2="-3.556" y2="-1.016" layer="51"/>
<rectangle x1="1.016" y1="-1.524" x2="1.524" y2="-1.016" layer="51"/>
<rectangle x1="-11.684" y1="1.016" x2="-11.176" y2="1.524" layer="51"/>
<rectangle x1="-9.144" y1="1.016" x2="-8.636" y2="1.524" layer="51"/>
<rectangle x1="-6.604" y1="1.016" x2="-6.096" y2="1.524" layer="51"/>
<rectangle x1="-4.064" y1="1.016" x2="-3.556" y2="1.524" layer="51"/>
<rectangle x1="-1.524" y1="1.016" x2="-1.016" y2="1.524" layer="51"/>
<rectangle x1="1.016" y1="1.016" x2="1.524" y2="1.524" layer="51"/>
<rectangle x1="6.096" y1="-1.524" x2="6.604" y2="-1.016" layer="51"/>
<rectangle x1="3.556" y1="-1.524" x2="4.064" y2="-1.016" layer="51"/>
<rectangle x1="3.556" y1="1.016" x2="4.064" y2="1.524" layer="51"/>
<rectangle x1="6.096" y1="1.016" x2="6.604" y2="1.524" layer="51"/>
<rectangle x1="8.636" y1="1.016" x2="9.144" y2="1.524" layer="51"/>
<rectangle x1="11.176" y1="1.016" x2="11.684" y2="1.524" layer="51"/>
<rectangle x1="8.636" y1="-1.524" x2="9.144" y2="-1.016" layer="51"/>
<rectangle x1="11.176" y1="-1.524" x2="11.684" y2="-1.016" layer="51"/>
</package>
</packages>
<symbols>
<symbol name="MA13-2">
<wire x1="3.81" y1="-17.78" x2="-3.81" y2="-17.78" width="0.4064" layer="94"/>
<wire x1="1.27" y1="-10.16" x2="2.54" y2="-10.16" width="0.6096" layer="94"/>
<wire x1="1.27" y1="-12.7" x2="2.54" y2="-12.7" width="0.6096" layer="94"/>
<wire x1="1.27" y1="-15.24" x2="2.54" y2="-15.24" width="0.6096" layer="94"/>
<wire x1="-2.54" y1="-10.16" x2="-1.27" y2="-10.16" width="0.6096" layer="94"/>
<wire x1="-2.54" y1="-12.7" x2="-1.27" y2="-12.7" width="0.6096" layer="94"/>
<wire x1="-2.54" y1="-15.24" x2="-1.27" y2="-15.24" width="0.6096" layer="94"/>
<wire x1="1.27" y1="-5.08" x2="2.54" y2="-5.08" width="0.6096" layer="94"/>
<wire x1="1.27" y1="-7.62" x2="2.54" y2="-7.62" width="0.6096" layer="94"/>
<wire x1="-2.54" y1="-5.08" x2="-1.27" y2="-5.08" width="0.6096" layer="94"/>
<wire x1="-2.54" y1="-7.62" x2="-1.27" y2="-7.62" width="0.6096" layer="94"/>
<wire x1="1.27" y1="2.54" x2="2.54" y2="2.54" width="0.6096" layer="94"/>
<wire x1="1.27" y1="0" x2="2.54" y2="0" width="0.6096" layer="94"/>
<wire x1="1.27" y1="-2.54" x2="2.54" y2="-2.54" width="0.6096" layer="94"/>
<wire x1="-2.54" y1="2.54" x2="-1.27" y2="2.54" width="0.6096" layer="94"/>
<wire x1="-2.54" y1="0" x2="-1.27" y2="0" width="0.6096" layer="94"/>
<wire x1="-2.54" y1="-2.54" x2="-1.27" y2="-2.54" width="0.6096" layer="94"/>
<wire x1="1.27" y1="7.62" x2="2.54" y2="7.62" width="0.6096" layer="94"/>
<wire x1="1.27" y1="5.08" x2="2.54" y2="5.08" width="0.6096" layer="94"/>
<wire x1="-2.54" y1="7.62" x2="-1.27" y2="7.62" width="0.6096" layer="94"/>
<wire x1="-2.54" y1="5.08" x2="-1.27" y2="5.08" width="0.6096" layer="94"/>
<wire x1="1.27" y1="15.24" x2="2.54" y2="15.24" width="0.6096" layer="94"/>
<wire x1="1.27" y1="12.7" x2="2.54" y2="12.7" width="0.6096" layer="94"/>
<wire x1="1.27" y1="10.16" x2="2.54" y2="10.16" width="0.6096" layer="94"/>
<wire x1="-2.54" y1="15.24" x2="-1.27" y2="15.24" width="0.6096" layer="94"/>
<wire x1="-2.54" y1="12.7" x2="-1.27" y2="12.7" width="0.6096" layer="94"/>
<wire x1="-2.54" y1="10.16" x2="-1.27" y2="10.16" width="0.6096" layer="94"/>
<wire x1="-3.81" y1="17.78" x2="-3.81" y2="-17.78" width="0.4064" layer="94"/>
<wire x1="3.81" y1="-17.78" x2="3.81" y2="17.78" width="0.4064" layer="94"/>
<wire x1="-3.81" y1="17.78" x2="3.81" y2="17.78" width="0.4064" layer="94"/>
<text x="-3.81" y="-20.32" size="1.778" layer="96">&gt;VALUE</text>
<text x="-3.81" y="18.542" size="1.778" layer="95">&gt;NAME</text>
<pin name="1" x="7.62" y="-15.24" visible="pad" length="middle" direction="pas" swaplevel="1" rot="R180"/>
<pin name="3" x="7.62" y="-12.7" visible="pad" length="middle" direction="pas" swaplevel="1" rot="R180"/>
<pin name="5" x="7.62" y="-10.16" visible="pad" length="middle" direction="pas" swaplevel="1" rot="R180"/>
<pin name="2" x="-7.62" y="-15.24" visible="pad" length="middle" direction="pas" swaplevel="1"/>
<pin name="4" x="-7.62" y="-12.7" visible="pad" length="middle" direction="pas" swaplevel="1"/>
<pin name="6" x="-7.62" y="-10.16" visible="pad" length="middle" direction="pas" swaplevel="1"/>
<pin name="7" x="7.62" y="-7.62" visible="pad" length="middle" direction="pas" swaplevel="1" rot="R180"/>
<pin name="9" x="7.62" y="-5.08" visible="pad" length="middle" direction="pas" swaplevel="1" rot="R180"/>
<pin name="8" x="-7.62" y="-7.62" visible="pad" length="middle" direction="pas" swaplevel="1"/>
<pin name="10" x="-7.62" y="-5.08" visible="pad" length="middle" direction="pas" swaplevel="1"/>
<pin name="11" x="7.62" y="-2.54" visible="pad" length="middle" direction="pas" swaplevel="1" rot="R180"/>
<pin name="13" x="7.62" y="0" visible="pad" length="middle" direction="pas" swaplevel="1" rot="R180"/>
<pin name="15" x="7.62" y="2.54" visible="pad" length="middle" direction="pas" swaplevel="1" rot="R180"/>
<pin name="12" x="-7.62" y="-2.54" visible="pad" length="middle" direction="pas" swaplevel="1"/>
<pin name="14" x="-7.62" y="0" visible="pad" length="middle" direction="pas" swaplevel="1"/>
<pin name="16" x="-7.62" y="2.54" visible="pad" length="middle" direction="pas" swaplevel="1"/>
<pin name="17" x="7.62" y="5.08" visible="pad" length="middle" direction="pas" swaplevel="1" rot="R180"/>
<pin name="19" x="7.62" y="7.62" visible="pad" length="middle" direction="pas" swaplevel="1" rot="R180"/>
<pin name="18" x="-7.62" y="5.08" visible="pad" length="middle" direction="pas" swaplevel="1"/>
<pin name="20" x="-7.62" y="7.62" visible="pad" length="middle" direction="pas" swaplevel="1"/>
<pin name="21" x="7.62" y="10.16" visible="pad" length="middle" direction="pas" swaplevel="1" rot="R180"/>
<pin name="23" x="7.62" y="12.7" visible="pad" length="middle" direction="pas" swaplevel="1" rot="R180"/>
<pin name="25" x="7.62" y="15.24" visible="pad" length="middle" direction="pas" swaplevel="1" rot="R180"/>
<pin name="22" x="-7.62" y="10.16" visible="pad" length="middle" direction="pas" swaplevel="1"/>
<pin name="24" x="-7.62" y="12.7" visible="pad" length="middle" direction="pas" swaplevel="1"/>
<pin name="26" x="-7.62" y="15.24" visible="pad" length="middle" direction="pas" swaplevel="1"/>
</symbol>
<symbol name="MA10-2">
<wire x1="3.81" y1="-12.7" x2="-3.81" y2="-12.7" width="0.4064" layer="94"/>
<wire x1="1.27" y1="-5.08" x2="2.54" y2="-5.08" width="0.6096" layer="94"/>
<wire x1="1.27" y1="-7.62" x2="2.54" y2="-7.62" width="0.6096" layer="94"/>
<wire x1="1.27" y1="-10.16" x2="2.54" y2="-10.16" width="0.6096" layer="94"/>
<wire x1="-2.54" y1="-5.08" x2="-1.27" y2="-5.08" width="0.6096" layer="94"/>
<wire x1="-2.54" y1="-7.62" x2="-1.27" y2="-7.62" width="0.6096" layer="94"/>
<wire x1="-2.54" y1="-10.16" x2="-1.27" y2="-10.16" width="0.6096" layer="94"/>
<wire x1="1.27" y1="0" x2="2.54" y2="0" width="0.6096" layer="94"/>
<wire x1="1.27" y1="-2.54" x2="2.54" y2="-2.54" width="0.6096" layer="94"/>
<wire x1="-2.54" y1="0" x2="-1.27" y2="0" width="0.6096" layer="94"/>
<wire x1="-2.54" y1="-2.54" x2="-1.27" y2="-2.54" width="0.6096" layer="94"/>
<wire x1="1.27" y1="7.62" x2="2.54" y2="7.62" width="0.6096" layer="94"/>
<wire x1="1.27" y1="5.08" x2="2.54" y2="5.08" width="0.6096" layer="94"/>
<wire x1="1.27" y1="2.54" x2="2.54" y2="2.54" width="0.6096" layer="94"/>
<wire x1="-2.54" y1="7.62" x2="-1.27" y2="7.62" width="0.6096" layer="94"/>
<wire x1="-2.54" y1="5.08" x2="-1.27" y2="5.08" width="0.6096" layer="94"/>
<wire x1="-2.54" y1="2.54" x2="-1.27" y2="2.54" width="0.6096" layer="94"/>
<wire x1="-3.81" y1="15.24" x2="-3.81" y2="-12.7" width="0.4064" layer="94"/>
<wire x1="3.81" y1="-12.7" x2="3.81" y2="15.24" width="0.4064" layer="94"/>
<wire x1="-3.81" y1="15.24" x2="3.81" y2="15.24" width="0.4064" layer="94"/>
<wire x1="1.27" y1="12.7" x2="2.54" y2="12.7" width="0.6096" layer="94"/>
<wire x1="1.27" y1="10.16" x2="2.54" y2="10.16" width="0.6096" layer="94"/>
<wire x1="-2.54" y1="12.7" x2="-1.27" y2="12.7" width="0.6096" layer="94"/>
<wire x1="-2.54" y1="10.16" x2="-1.27" y2="10.16" width="0.6096" layer="94"/>
<text x="-3.81" y="-15.24" size="1.778" layer="96">&gt;VALUE</text>
<text x="-3.81" y="16.002" size="1.778" layer="95">&gt;NAME</text>
<pin name="1" x="7.62" y="-10.16" visible="pad" length="middle" direction="pas" swaplevel="1" rot="R180"/>
<pin name="3" x="7.62" y="-7.62" visible="pad" length="middle" direction="pas" swaplevel="1" rot="R180"/>
<pin name="5" x="7.62" y="-5.08" visible="pad" length="middle" direction="pas" swaplevel="1" rot="R180"/>
<pin name="2" x="-7.62" y="-10.16" visible="pad" length="middle" direction="pas" swaplevel="1"/>
<pin name="4" x="-7.62" y="-7.62" visible="pad" length="middle" direction="pas" swaplevel="1"/>
<pin name="6" x="-7.62" y="-5.08" visible="pad" length="middle" direction="pas" swaplevel="1"/>
<pin name="7" x="7.62" y="-2.54" visible="pad" length="middle" direction="pas" swaplevel="1" rot="R180"/>
<pin name="9" x="7.62" y="0" visible="pad" length="middle" direction="pas" swaplevel="1" rot="R180"/>
<pin name="8" x="-7.62" y="-2.54" visible="pad" length="middle" direction="pas" swaplevel="1"/>
<pin name="10" x="-7.62" y="0" visible="pad" length="middle" direction="pas" swaplevel="1"/>
<pin name="11" x="7.62" y="2.54" visible="pad" length="middle" direction="pas" swaplevel="1" rot="R180"/>
<pin name="13" x="7.62" y="5.08" visible="pad" length="middle" direction="pas" swaplevel="1" rot="R180"/>
<pin name="15" x="7.62" y="7.62" visible="pad" length="middle" direction="pas" swaplevel="1" rot="R180"/>
<pin name="12" x="-7.62" y="2.54" visible="pad" length="middle" direction="pas" swaplevel="1"/>
<pin name="14" x="-7.62" y="5.08" visible="pad" length="middle" direction="pas" swaplevel="1"/>
<pin name="16" x="-7.62" y="7.62" visible="pad" length="middle" direction="pas" swaplevel="1"/>
<pin name="17" x="7.62" y="10.16" visible="pad" length="middle" direction="pas" swaplevel="1" rot="R180"/>
<pin name="19" x="7.62" y="12.7" visible="pad" length="middle" direction="pas" swaplevel="1" rot="R180"/>
<pin name="18" x="-7.62" y="10.16" visible="pad" length="middle" direction="pas" swaplevel="1"/>
<pin name="20" x="-7.62" y="12.7" visible="pad" length="middle" direction="pas" swaplevel="1"/>
</symbol>
</symbols>
<devicesets>
<deviceset name="MA13-2" prefix="SV" uservalue="yes">
<description>&lt;b&gt;PIN HEADER&lt;/b&gt;</description>
<gates>
<gate name="G$1" symbol="MA13-2" x="0" y="0"/>
</gates>
<devices>
<device name="" package="MA13-2">
<connects>
<connect gate="G$1" pin="1" pad="1"/>
<connect gate="G$1" pin="10" pad="10"/>
<connect gate="G$1" pin="11" pad="11"/>
<connect gate="G$1" pin="12" pad="12"/>
<connect gate="G$1" pin="13" pad="13"/>
<connect gate="G$1" pin="14" pad="14"/>
<connect gate="G$1" pin="15" pad="15"/>
<connect gate="G$1" pin="16" pad="16"/>
<connect gate="G$1" pin="17" pad="17"/>
<connect gate="G$1" pin="18" pad="18"/>
<connect gate="G$1" pin="19" pad="19"/>
<connect gate="G$1" pin="2" pad="2"/>
<connect gate="G$1" pin="20" pad="20"/>
<connect gate="G$1" pin="21" pad="21"/>
<connect gate="G$1" pin="22" pad="22"/>
<connect gate="G$1" pin="23" pad="23"/>
<connect gate="G$1" pin="24" pad="24"/>
<connect gate="G$1" pin="25" pad="25"/>
<connect gate="G$1" pin="26" pad="26"/>
<connect gate="G$1" pin="3" pad="3"/>
<connect gate="G$1" pin="4" pad="4"/>
<connect gate="G$1" pin="5" pad="5"/>
<connect gate="G$1" pin="6" pad="6"/>
<connect gate="G$1" pin="7" pad="7"/>
<connect gate="G$1" pin="8" pad="8"/>
<connect gate="G$1" pin="9" pad="9"/>
</connects>
<technologies>
<technology name="">
<attribute name="MF" value="" constant="no"/>
<attribute name="MPN" value="" constant="no"/>
<attribute name="OC_FARNELL" value="unknown" constant="no"/>
<attribute name="OC_NEWARK" value="unknown" constant="no"/>
</technology>
</technologies>
</device>
</devices>
</deviceset>
<deviceset name="MA10-2" prefix="SV" uservalue="yes">
<description>&lt;b&gt;PIN HEADER&lt;/b&gt;</description>
<gates>
<gate name="G$1" symbol="MA10-2" x="0" y="0"/>
</gates>
<devices>
<device name="" package="MA10-2">
<connects>
<connect gate="G$1" pin="1" pad="1"/>
<connect gate="G$1" pin="10" pad="10"/>
<connect gate="G$1" pin="11" pad="11"/>
<connect gate="G$1" pin="12" pad="12"/>
<connect gate="G$1" pin="13" pad="13"/>
<connect gate="G$1" pin="14" pad="14"/>
<connect gate="G$1" pin="15" pad="15"/>
<connect gate="G$1" pin="16" pad="16"/>
<connect gate="G$1" pin="17" pad="17"/>
<connect gate="G$1" pin="18" pad="18"/>
<connect gate="G$1" pin="19" pad="19"/>
<connect gate="G$1" pin="2" pad="2"/>
<connect gate="G$1" pin="20" pad="20"/>
<connect gate="G$1" pin="3" pad="3"/>
<connect gate="G$1" pin="4" pad="4"/>
<connect gate="G$1" pin="5" pad="5"/>
<connect gate="G$1" pin="6" pad="6"/>
<connect gate="G$1" pin="7" pad="7"/>
<connect gate="G$1" pin="8" pad="8"/>
<connect gate="G$1" pin="9" pad="9"/>
</connects>
<technologies>
<technology name="">
<attribute name="MF" value="" constant="no"/>
<attribute name="MPN" value="" constant="no"/>
<attribute name="OC_FARNELL" value="unknown" constant="no"/>
<attribute name="OC_NEWARK" value="unknown" constant="no"/>
</technology>
</technologies>
</device>
</devices>
</deviceset>
</devicesets>
</library>
<library name="supply1">
<packages>
</packages>
<symbols>
<symbol name="GND">
<wire x1="-1.905" y1="0" x2="1.905" y2="0" width="0.254" layer="94"/>
<text x="-2.54" y="-2.54" size="1.778" layer="96">&gt;VALUE</text>
<pin name="GND" x="0" y="2.54" visible="off" length="short" direction="sup" rot="R270"/>
</symbol>
</symbols>
<devicesets>
<deviceset name="GND" prefix="GND">
<description>&lt;b&gt;SUPPLY SYMBOL&lt;/b&gt;</description>
<gates>
<gate name="1" symbol="GND" x="0" y="0"/>
</gates>
<devices>
<device name="">
<technologies>
<technology name=""/>
</technologies>
</device>
</devices>
</deviceset>
</devicesets>
</library>
<library name="transistor">
<description>&lt;b&gt;NPN Transistors&lt;/b&gt;&lt;p&gt;
&lt;author&gt;Created by librarian@cadsoft.de&lt;/author&gt;</description>
<packages>
<package name="TO92">
<description>&lt;b&gt;TO 92&lt;/b&gt;</description>
<wire x1="-2.0946" y1="-1.651" x2="-2.6549" y2="-0.254" width="0.127" layer="21" curve="-32.78104"/>
<wire x1="-2.6549" y1="-0.254" x2="-0.7863" y2="2.5485" width="0.127" layer="21" curve="-78.318477"/>
<wire x1="0.7863" y1="2.5484" x2="2.0945" y2="-1.651" width="0.127" layer="21" curve="-111.09954"/>
<wire x1="-2.0945" y1="-1.651" x2="2.0945" y2="-1.651" width="0.127" layer="21"/>
<wire x1="-2.2537" y1="-0.254" x2="-0.2863" y2="-0.254" width="0.127" layer="51"/>
<wire x1="-2.6549" y1="-0.254" x2="-2.2537" y2="-0.254" width="0.127" layer="21"/>
<wire x1="-0.2863" y1="-0.254" x2="0.2863" y2="-0.254" width="0.127" layer="21"/>
<wire x1="2.2537" y1="-0.254" x2="2.6549" y2="-0.254" width="0.127" layer="21"/>
<wire x1="0.2863" y1="-0.254" x2="2.2537" y2="-0.254" width="0.127" layer="51"/>
<wire x1="-0.7863" y1="2.5485" x2="0.7863" y2="2.5485" width="0.127" layer="51" curve="-34.293591"/>
<pad name="1" x="1.27" y="0" drill="0.8128" shape="octagon"/>
<pad name="2" x="0" y="1.905" drill="0.8128" shape="octagon"/>
<pad name="3" x="-1.27" y="0" drill="0.8128" shape="octagon"/>
<text x="3.175" y="0.635" size="1.27" layer="25" ratio="10">&gt;NAME</text>
<text x="3.175" y="-1.27" size="1.27" layer="27" ratio="10">&gt;VALUE</text>
<text x="-0.635" y="0.635" size="1.27" layer="51" ratio="10">2</text>
<text x="-2.159" y="0" size="1.27" layer="51" ratio="10">3</text>
<text x="1.143" y="0" size="1.27" layer="51" ratio="10">1</text>
</package>
</packages>
<symbols>
<symbol name="NPN">
<wire x1="2.54" y1="2.54" x2="0.508" y2="1.524" width="0.1524" layer="94"/>
<wire x1="1.778" y1="-1.524" x2="2.54" y2="-2.54" width="0.1524" layer="94"/>
<wire x1="2.54" y1="-2.54" x2="1.27" y2="-2.54" width="0.1524" layer="94"/>
<wire x1="1.27" y1="-2.54" x2="1.778" y2="-1.524" width="0.1524" layer="94"/>
<wire x1="1.54" y1="-2.04" x2="0.308" y2="-1.424" width="0.1524" layer="94"/>
<wire x1="1.524" y1="-2.413" x2="2.286" y2="-2.413" width="0.254" layer="94"/>
<wire x1="2.286" y1="-2.413" x2="1.778" y2="-1.778" width="0.254" layer="94"/>
<wire x1="1.778" y1="-1.778" x2="1.524" y2="-2.286" width="0.254" layer="94"/>
<wire x1="1.524" y1="-2.286" x2="1.905" y2="-2.286" width="0.254" layer="94"/>
<wire x1="1.905" y1="-2.286" x2="1.778" y2="-2.032" width="0.254" layer="94"/>
<text x="-10.16" y="7.62" size="1.778" layer="95">&gt;NAME</text>
<text x="-10.16" y="5.08" size="1.778" layer="96">&gt;VALUE</text>
<rectangle x1="-0.254" y1="-2.54" x2="0.508" y2="2.54" layer="94"/>
<pin name="B" x="-2.54" y="0" visible="off" length="short" direction="pas" swaplevel="1"/>
<pin name="E" x="2.54" y="-5.08" visible="off" length="short" direction="pas" swaplevel="3" rot="R90"/>
<pin name="C" x="2.54" y="5.08" visible="off" length="short" direction="pas" swaplevel="2" rot="R270"/>
</symbol>
</symbols>
<devicesets>
<deviceset name="2N3904" prefix="T">
<description>&lt;b&gt;NPN TRANSISTOR&lt;/b&gt;</description>
<gates>
<gate name="G1" symbol="NPN" x="0" y="0"/>
</gates>
<devices>
<device name="" package="TO92">
<connects>
<connect gate="G1" pin="B" pad="2"/>
<connect gate="G1" pin="C" pad="1"/>
<connect gate="G1" pin="E" pad="3"/>
</connects>
<technologies>
<technology name=""/>
</technologies>
</device>
</devices>
</deviceset>
</devicesets>
</library>
</libraries>
<attributes>
</attributes>
<variantdefs>
</variantdefs>
<classes>
<class number="0" name="default" width="0" drill="0">
</class>
</classes>
<parts>
<part name="SV1" library="con-lstb" deviceset="MA13-2" device=""/>
<part name="SV2" library="con-lstb" deviceset="MA10-2" device=""/>
<part name="GND1" library="supply1" deviceset="GND" device=""/>
<part name="T1" library="transistor" deviceset="2N3904" device=""/>
<part name="T2" library="transistor" deviceset="2N3904" device=""/>
<part name="T3" library="transistor" deviceset="2N3904" device=""/>
<part name="T4" library="transistor" deviceset="2N3904" device=""/>
<part name="T6" library="transistor" deviceset="2N3904" device=""/>
<part name="T7" library="transistor" deviceset="2N3904" device=""/>
<part name="T8" library="transistor" deviceset="2N3904" device=""/>
<part name="T9" library="transistor" deviceset="2N3904" device=""/>
<part name="GND3" library="supply1" deviceset="GND" device=""/>
<part name="GND4" library="supply1" deviceset="GND" device=""/>
<part name="GND5" library="supply1" deviceset="GND" device=""/>
<part name="GND6" library="supply1" deviceset="GND" device=""/>
<part name="GND7" library="supply1" deviceset="GND" device=""/>
<part name="GND8" library="supply1" deviceset="GND" device=""/>
<part name="GND9" library="supply1" deviceset="GND" device=""/>
<part name="GND10" library="supply1" deviceset="GND" device=""/>
<part name="T5" library="transistor" deviceset="2N3904" device=""/>
<part name="T10" library="transistor" deviceset="2N3904" device=""/>
<part name="T11" library="transistor" deviceset="2N3904" device=""/>
<part name="T12" library="transistor" deviceset="2N3904" device=""/>
<part name="T13" library="transistor" deviceset="2N3904" device=""/>
<part name="T14" library="transistor" deviceset="2N3904" device=""/>
<part name="T15" library="transistor" deviceset="2N3904" device=""/>
<part name="T16" library="transistor" deviceset="2N3904" device=""/>
<part name="GND2" library="supply1" deviceset="GND" device=""/>
<part name="GND11" library="supply1" deviceset="GND" device=""/>
<part name="GND12" library="supply1" deviceset="GND" device=""/>
<part name="GND13" library="supply1" deviceset="GND" device=""/>
<part name="GND14" library="supply1" deviceset="GND" device=""/>
<part name="GND15" library="supply1" deviceset="GND" device=""/>
<part name="GND16" library="supply1" deviceset="GND" device=""/>
<part name="GND17" library="supply1" deviceset="GND" device=""/>
</parts>
<sheets>
<sheet>
<plain>
</plain>
<instances>
<instance part="SV1" gate="G$1" x="5.08" y="86.36" rot="R180"/>
<instance part="SV2" gate="G$1" x="50.8" y="27.94" rot="R270"/>
<instance part="GND1" gate="1" x="78.74" y="27.94" rot="R90"/>
<instance part="T1" gate="G1" x="40.64" y="48.26"/>
<instance part="T2" gate="G1" x="43.18" y="58.42"/>
<instance part="T3" gate="G1" x="45.72" y="68.58"/>
<instance part="T4" gate="G1" x="48.26" y="78.74"/>
<instance part="T6" gate="G1" x="55.88" y="109.22"/>
<instance part="T7" gate="G1" x="53.34" y="99.06"/>
<instance part="T8" gate="G1" x="50.8" y="88.9"/>
<instance part="T9" gate="G1" x="58.42" y="119.38"/>
<instance part="GND3" gate="1" x="27.94" y="53.34" rot="R270"/>
<instance part="GND4" gate="1" x="27.94" y="63.5" rot="R270"/>
<instance part="GND5" gate="1" x="27.94" y="73.66" rot="R270"/>
<instance part="GND6" gate="1" x="27.94" y="83.82" rot="R270"/>
<instance part="GND7" gate="1" x="27.94" y="93.98" rot="R270"/>
<instance part="GND8" gate="1" x="27.94" y="104.14" rot="R270"/>
<instance part="GND9" gate="1" x="27.94" y="114.3" rot="R270"/>
<instance part="GND10" gate="1" x="27.94" y="124.46" rot="R270"/>
<instance part="T5" gate="G1" x="53.34" y="-35.56" rot="R180"/>
<instance part="T10" gate="G1" x="63.5" y="5.08" rot="R180"/>
<instance part="T11" gate="G1" x="60.96" y="-5.08" rot="R180"/>
<instance part="T12" gate="G1" x="58.42" y="-15.24" rot="R180"/>
<instance part="T13" gate="G1" x="55.88" y="-25.4" rot="R180"/>
<instance part="T14" gate="G1" x="50.8" y="-45.72" rot="R180"/>
<instance part="T15" gate="G1" x="48.26" y="-55.88" rot="R180"/>
<instance part="T16" gate="G1" x="45.72" y="-66.04" rot="R180"/>
<instance part="GND2" gate="1" x="78.74" y="0" rot="R90"/>
<instance part="GND11" gate="1" x="78.74" y="-10.16" rot="R90"/>
<instance part="GND12" gate="1" x="78.74" y="-20.32" rot="R90"/>
<instance part="GND13" gate="1" x="78.74" y="-30.48" rot="R90"/>
<instance part="GND14" gate="1" x="78.74" y="-40.64" rot="R90"/>
<instance part="GND15" gate="1" x="78.74" y="-50.8" rot="R90"/>
<instance part="GND16" gate="1" x="78.74" y="-60.96" rot="R90"/>
<instance part="GND17" gate="1" x="78.74" y="-71.12" rot="R90"/>
</instances>
<busses>
</busses>
<nets>
<net name="GND" class="0">
<segment>
<pinref part="T1" gate="G1" pin="C"/>
<pinref part="GND3" gate="1" pin="GND"/>
<wire x1="43.18" y1="53.34" x2="30.48" y2="53.34" width="0.1524" layer="91"/>
</segment>
<segment>
<pinref part="T2" gate="G1" pin="C"/>
<pinref part="GND4" gate="1" pin="GND"/>
<wire x1="45.72" y1="63.5" x2="30.48" y2="63.5" width="0.1524" layer="91"/>
</segment>
<segment>
<pinref part="T3" gate="G1" pin="C"/>
<pinref part="GND5" gate="1" pin="GND"/>
<wire x1="48.26" y1="73.66" x2="30.48" y2="73.66" width="0.1524" layer="91"/>
</segment>
<segment>
<pinref part="T4" gate="G1" pin="C"/>
<pinref part="GND6" gate="1" pin="GND"/>
<wire x1="50.8" y1="83.82" x2="30.48" y2="83.82" width="0.1524" layer="91"/>
</segment>
<segment>
<pinref part="T8" gate="G1" pin="C"/>
<pinref part="GND7" gate="1" pin="GND"/>
<wire x1="53.34" y1="93.98" x2="30.48" y2="93.98" width="0.1524" layer="91"/>
</segment>
<segment>
<pinref part="T7" gate="G1" pin="C"/>
<pinref part="GND8" gate="1" pin="GND"/>
<wire x1="55.88" y1="104.14" x2="30.48" y2="104.14" width="0.1524" layer="91"/>
</segment>
<segment>
<pinref part="T6" gate="G1" pin="C"/>
<pinref part="GND9" gate="1" pin="GND"/>
<wire x1="58.42" y1="114.3" x2="30.48" y2="114.3" width="0.1524" layer="91"/>
</segment>
<segment>
<pinref part="T9" gate="G1" pin="C"/>
<pinref part="GND10" gate="1" pin="GND"/>
<wire x1="60.96" y1="124.46" x2="30.48" y2="124.46" width="0.1524" layer="91"/>
</segment>
<segment>
<pinref part="SV2" gate="G$1" pin="20"/>
<pinref part="GND1" gate="1" pin="GND"/>
<wire x1="63.5" y1="35.56" x2="76.2" y2="35.56" width="0.1524" layer="91"/>
<wire x1="76.2" y1="35.56" x2="76.2" y2="27.94" width="0.1524" layer="91"/>
<pinref part="SV2" gate="G$1" pin="19"/>
<wire x1="63.5" y1="20.32" x2="76.2" y2="20.32" width="0.1524" layer="91"/>
<wire x1="76.2" y1="20.32" x2="76.2" y2="27.94" width="0.1524" layer="91"/>
<junction x="76.2" y="27.94"/>
</segment>
<segment>
<pinref part="T16" gate="G1" pin="C"/>
<pinref part="GND17" gate="1" pin="GND"/>
<wire x1="43.18" y1="-71.12" x2="76.2" y2="-71.12" width="0.1524" layer="91"/>
</segment>
<segment>
<pinref part="GND16" gate="1" pin="GND"/>
<pinref part="T15" gate="G1" pin="C"/>
<wire x1="76.2" y1="-60.96" x2="45.72" y2="-60.96" width="0.1524" layer="91"/>
</segment>
<segment>
<pinref part="T14" gate="G1" pin="C"/>
<pinref part="GND15" gate="1" pin="GND"/>
<wire x1="48.26" y1="-50.8" x2="76.2" y2="-50.8" width="0.1524" layer="91"/>
</segment>
<segment>
<pinref part="GND14" gate="1" pin="GND"/>
<pinref part="T5" gate="G1" pin="C"/>
<wire x1="76.2" y1="-40.64" x2="50.8" y2="-40.64" width="0.1524" layer="91"/>
</segment>
<segment>
<pinref part="T13" gate="G1" pin="C"/>
<pinref part="GND13" gate="1" pin="GND"/>
<wire x1="53.34" y1="-30.48" x2="76.2" y2="-30.48" width="0.1524" layer="91"/>
</segment>
<segment>
<pinref part="GND12" gate="1" pin="GND"/>
<pinref part="T12" gate="G1" pin="C"/>
<wire x1="76.2" y1="-20.32" x2="55.88" y2="-20.32" width="0.1524" layer="91"/>
</segment>
<segment>
<pinref part="GND11" gate="1" pin="GND"/>
<pinref part="T11" gate="G1" pin="C"/>
<wire x1="76.2" y1="-10.16" x2="58.42" y2="-10.16" width="0.1524" layer="91"/>
</segment>
<segment>
<pinref part="T10" gate="G1" pin="C"/>
<pinref part="GND2" gate="1" pin="GND"/>
<wire x1="60.96" y1="0" x2="76.2" y2="0" width="0.1524" layer="91"/>
</segment>
</net>
<net name="N$1" class="0">
<segment>
<pinref part="T1" gate="G1" pin="E"/>
<pinref part="SV2" gate="G$1" pin="4"/>
<wire x1="43.18" y1="43.18" x2="43.18" y2="35.56" width="0.1524" layer="91"/>
</segment>
</net>
<net name="N$2" class="0">
<segment>
<pinref part="T2" gate="G1" pin="E"/>
<pinref part="SV2" gate="G$1" pin="6"/>
<wire x1="45.72" y1="53.34" x2="45.72" y2="35.56" width="0.1524" layer="91"/>
</segment>
</net>
<net name="N$3" class="0">
<segment>
<pinref part="T3" gate="G1" pin="E"/>
<pinref part="SV2" gate="G$1" pin="8"/>
<wire x1="48.26" y1="63.5" x2="48.26" y2="35.56" width="0.1524" layer="91"/>
</segment>
</net>
<net name="N$4" class="0">
<segment>
<pinref part="T4" gate="G1" pin="E"/>
<pinref part="SV2" gate="G$1" pin="10"/>
<wire x1="50.8" y1="73.66" x2="50.8" y2="35.56" width="0.1524" layer="91"/>
</segment>
</net>
<net name="N$6" class="0">
<segment>
<pinref part="T7" gate="G1" pin="E"/>
<pinref part="SV2" gate="G$1" pin="14"/>
<wire x1="55.88" y1="93.98" x2="55.88" y2="35.56" width="0.1524" layer="91"/>
</segment>
</net>
<net name="N$5" class="0">
<segment>
<pinref part="T8" gate="G1" pin="E"/>
<pinref part="SV2" gate="G$1" pin="12"/>
<wire x1="53.34" y1="83.82" x2="53.34" y2="35.56" width="0.1524" layer="91"/>
</segment>
</net>
<net name="N$7" class="0">
<segment>
<pinref part="T6" gate="G1" pin="E"/>
<pinref part="SV2" gate="G$1" pin="16"/>
<wire x1="58.42" y1="104.14" x2="58.42" y2="35.56" width="0.1524" layer="91"/>
</segment>
</net>
<net name="N$8" class="0">
<segment>
<pinref part="SV2" gate="G$1" pin="18"/>
<pinref part="T9" gate="G1" pin="E"/>
<wire x1="60.96" y1="35.56" x2="60.96" y2="114.3" width="0.1524" layer="91"/>
</segment>
</net>
<net name="N$17" class="0">
<segment>
<pinref part="T16" gate="G1" pin="E"/>
<pinref part="SV2" gate="G$1" pin="3"/>
<wire x1="43.18" y1="-60.96" x2="43.18" y2="20.32" width="0.1524" layer="91"/>
</segment>
</net>
<net name="N$18" class="0">
<segment>
<pinref part="T15" gate="G1" pin="E"/>
<pinref part="SV2" gate="G$1" pin="5"/>
<wire x1="45.72" y1="-50.8" x2="45.72" y2="20.32" width="0.1524" layer="91"/>
</segment>
</net>
<net name="N$19" class="0">
<segment>
<pinref part="SV2" gate="G$1" pin="7"/>
<pinref part="T14" gate="G1" pin="E"/>
<wire x1="48.26" y1="20.32" x2="48.26" y2="-40.64" width="0.1524" layer="91"/>
</segment>
</net>
<net name="N$20" class="0">
<segment>
<pinref part="T5" gate="G1" pin="E"/>
<pinref part="SV2" gate="G$1" pin="9"/>
<wire x1="50.8" y1="-30.48" x2="50.8" y2="20.32" width="0.1524" layer="91"/>
</segment>
</net>
<net name="N$21" class="0">
<segment>
<pinref part="SV2" gate="G$1" pin="11"/>
<pinref part="T13" gate="G1" pin="E"/>
<wire x1="53.34" y1="20.32" x2="53.34" y2="-20.32" width="0.1524" layer="91"/>
</segment>
</net>
<net name="N$22" class="0">
<segment>
<pinref part="T12" gate="G1" pin="E"/>
<pinref part="SV2" gate="G$1" pin="13"/>
<wire x1="55.88" y1="-10.16" x2="55.88" y2="20.32" width="0.1524" layer="91"/>
</segment>
</net>
<net name="N$23" class="0">
<segment>
<pinref part="T11" gate="G1" pin="E"/>
<pinref part="SV2" gate="G$1" pin="15"/>
<wire x1="58.42" y1="0" x2="58.42" y2="20.32" width="0.1524" layer="91"/>
</segment>
</net>
<net name="N$24" class="0">
<segment>
<pinref part="SV2" gate="G$1" pin="17"/>
<pinref part="T10" gate="G1" pin="E"/>
<wire x1="60.96" y1="20.32" x2="60.96" y2="10.16" width="0.1524" layer="91"/>
</segment>
</net>
<net name="N$27" class="0">
<segment>
<pinref part="T16" gate="G1" pin="B"/>
<wire x1="48.26" y1="-66.04" x2="86.36" y2="-66.04" width="0.1524" layer="91"/>
<wire x1="86.36" y1="-66.04" x2="86.36" y2="-78.74" width="0.1524" layer="91"/>
<wire x1="86.36" y1="-78.74" x2="-25.4" y2="-78.74" width="0.1524" layer="91"/>
<wire x1="-25.4" y1="-78.74" x2="-25.4" y2="76.2" width="0.1524" layer="91"/>
<wire x1="-25.4" y1="76.2" x2="-2.54" y2="76.2" width="0.1524" layer="91"/>
<pinref part="SV1" gate="G$1" pin="21"/>
</segment>
</net>
<net name="N$31" class="0">
<segment>
<pinref part="T15" gate="G1" pin="B"/>
<wire x1="50.8" y1="-55.88" x2="88.9" y2="-55.88" width="0.1524" layer="91"/>
<wire x1="-2.54" y1="78.74" x2="-27.94" y2="78.74" width="0.1524" layer="91"/>
<wire x1="-27.94" y1="78.74" x2="-27.94" y2="-81.28" width="0.1524" layer="91"/>
<wire x1="-27.94" y1="-81.28" x2="88.9" y2="-81.28" width="0.1524" layer="91"/>
<wire x1="88.9" y1="-81.28" x2="88.9" y2="-55.88" width="0.1524" layer="91"/>
<pinref part="SV1" gate="G$1" pin="19"/>
</segment>
</net>
<net name="N$35" class="0">
<segment>
<wire x1="-2.54" y1="83.82" x2="-30.48" y2="83.82" width="0.1524" layer="91"/>
<wire x1="-30.48" y1="83.82" x2="-30.48" y2="-83.82" width="0.1524" layer="91"/>
<wire x1="-30.48" y1="-83.82" x2="91.44" y2="-83.82" width="0.1524" layer="91"/>
<wire x1="91.44" y1="-83.82" x2="91.44" y2="-45.72" width="0.1524" layer="91"/>
<pinref part="T14" gate="G1" pin="B"/>
<wire x1="91.44" y1="-45.72" x2="53.34" y2="-45.72" width="0.1524" layer="91"/>
<pinref part="SV1" gate="G$1" pin="15"/>
</segment>
</net>
<net name="N$36" class="0">
<segment>
<wire x1="-2.54" y1="86.36" x2="-33.02" y2="86.36" width="0.1524" layer="91"/>
<wire x1="-33.02" y1="86.36" x2="-33.02" y2="-86.36" width="0.1524" layer="91"/>
<wire x1="-33.02" y1="-86.36" x2="93.98" y2="-86.36" width="0.1524" layer="91"/>
<wire x1="93.98" y1="-86.36" x2="93.98" y2="-35.56" width="0.1524" layer="91"/>
<pinref part="T5" gate="G1" pin="B"/>
<wire x1="93.98" y1="-35.56" x2="55.88" y2="-35.56" width="0.1524" layer="91"/>
<pinref part="SV1" gate="G$1" pin="13"/>
</segment>
</net>
<net name="N$30" class="0">
<segment>
<pinref part="T13" gate="G1" pin="B"/>
<wire x1="58.42" y1="-25.4" x2="96.52" y2="-25.4" width="0.1524" layer="91"/>
<wire x1="96.52" y1="-25.4" x2="96.52" y2="-88.9" width="0.1524" layer="91"/>
<wire x1="96.52" y1="-88.9" x2="-35.56" y2="-88.9" width="0.1524" layer="91"/>
<wire x1="-35.56" y1="-88.9" x2="-35.56" y2="88.9" width="0.1524" layer="91"/>
<wire x1="-35.56" y1="88.9" x2="-2.54" y2="88.9" width="0.1524" layer="91"/>
<pinref part="SV1" gate="G$1" pin="11"/>
</segment>
</net>
<net name="N$34" class="0">
<segment>
<wire x1="-2.54" y1="93.98" x2="-38.1" y2="93.98" width="0.1524" layer="91"/>
<wire x1="-38.1" y1="93.98" x2="-38.1" y2="-91.44" width="0.1524" layer="91"/>
<wire x1="-38.1" y1="-91.44" x2="99.06" y2="-91.44" width="0.1524" layer="91"/>
<wire x1="99.06" y1="-91.44" x2="99.06" y2="-15.24" width="0.1524" layer="91"/>
<pinref part="T12" gate="G1" pin="B"/>
<wire x1="99.06" y1="-15.24" x2="60.96" y2="-15.24" width="0.1524" layer="91"/>
<pinref part="SV1" gate="G$1" pin="7"/>
</segment>
</net>
<net name="N$33" class="0">
<segment>
<wire x1="-2.54" y1="96.52" x2="-40.64" y2="96.52" width="0.1524" layer="91"/>
<wire x1="-40.64" y1="96.52" x2="-40.64" y2="-93.98" width="0.1524" layer="91"/>
<wire x1="-40.64" y1="-93.98" x2="101.6" y2="-93.98" width="0.1524" layer="91"/>
<wire x1="101.6" y1="-93.98" x2="101.6" y2="-5.08" width="0.1524" layer="91"/>
<pinref part="T11" gate="G1" pin="B"/>
<wire x1="101.6" y1="-5.08" x2="63.5" y2="-5.08" width="0.1524" layer="91"/>
<pinref part="SV1" gate="G$1" pin="5"/>
</segment>
</net>
<net name="N$32" class="0">
<segment>
<wire x1="-2.54" y1="99.06" x2="-43.18" y2="99.06" width="0.1524" layer="91"/>
<wire x1="-43.18" y1="99.06" x2="-43.18" y2="-96.52" width="0.1524" layer="91"/>
<wire x1="-43.18" y1="-96.52" x2="104.14" y2="-96.52" width="0.1524" layer="91"/>
<wire x1="104.14" y1="-96.52" x2="104.14" y2="5.08" width="0.1524" layer="91"/>
<pinref part="T10" gate="G1" pin="B"/>
<wire x1="104.14" y1="5.08" x2="66.04" y2="5.08" width="0.1524" layer="91"/>
<pinref part="SV1" gate="G$1" pin="3"/>
</segment>
</net>
<net name="N$9" class="0">
<segment>
<pinref part="T9" gate="G1" pin="B"/>
<wire x1="55.88" y1="119.38" x2="15.24" y2="119.38" width="0.1524" layer="91"/>
<wire x1="15.24" y1="119.38" x2="15.24" y2="93.98" width="0.1524" layer="91"/>
<pinref part="SV1" gate="G$1" pin="8"/>
<wire x1="15.24" y1="93.98" x2="12.7" y2="93.98" width="0.1524" layer="91"/>
</segment>
</net>
<net name="N$10" class="0">
<segment>
<pinref part="T6" gate="G1" pin="B"/>
<wire x1="53.34" y1="109.22" x2="17.78" y2="109.22" width="0.1524" layer="91"/>
<wire x1="17.78" y1="109.22" x2="17.78" y2="91.44" width="0.1524" layer="91"/>
<pinref part="SV1" gate="G$1" pin="10"/>
<wire x1="17.78" y1="91.44" x2="12.7" y2="91.44" width="0.1524" layer="91"/>
</segment>
</net>
<net name="N$11" class="0">
<segment>
<pinref part="T7" gate="G1" pin="B"/>
<wire x1="50.8" y1="99.06" x2="20.32" y2="99.06" width="0.1524" layer="91"/>
<wire x1="20.32" y1="99.06" x2="20.32" y2="88.9" width="0.1524" layer="91"/>
<pinref part="SV1" gate="G$1" pin="12"/>
<wire x1="20.32" y1="88.9" x2="12.7" y2="88.9" width="0.1524" layer="91"/>
</segment>
</net>
<net name="N$12" class="0">
<segment>
<pinref part="T8" gate="G1" pin="B"/>
<wire x1="48.26" y1="88.9" x2="22.86" y2="88.9" width="0.1524" layer="91"/>
<wire x1="22.86" y1="88.9" x2="22.86" y2="83.82" width="0.1524" layer="91"/>
<pinref part="SV1" gate="G$1" pin="16"/>
<wire x1="22.86" y1="83.82" x2="12.7" y2="83.82" width="0.1524" layer="91"/>
</segment>
</net>
<net name="N$13" class="0">
<segment>
<pinref part="T4" gate="G1" pin="B"/>
<wire x1="45.72" y1="78.74" x2="22.86" y2="78.74" width="0.1524" layer="91"/>
<wire x1="22.86" y1="78.74" x2="22.86" y2="81.28" width="0.1524" layer="91"/>
<pinref part="SV1" gate="G$1" pin="18"/>
<wire x1="22.86" y1="81.28" x2="12.7" y2="81.28" width="0.1524" layer="91"/>
</segment>
</net>
<net name="N$14" class="0">
<segment>
<pinref part="T3" gate="G1" pin="B"/>
<wire x1="43.18" y1="68.58" x2="20.32" y2="68.58" width="0.1524" layer="91"/>
<wire x1="20.32" y1="68.58" x2="20.32" y2="76.2" width="0.1524" layer="91"/>
<pinref part="SV1" gate="G$1" pin="22"/>
<wire x1="20.32" y1="76.2" x2="12.7" y2="76.2" width="0.1524" layer="91"/>
</segment>
</net>
<net name="N$15" class="0">
<segment>
<pinref part="T2" gate="G1" pin="B"/>
<wire x1="40.64" y1="58.42" x2="17.78" y2="58.42" width="0.1524" layer="91"/>
<wire x1="17.78" y1="58.42" x2="17.78" y2="73.66" width="0.1524" layer="91"/>
<pinref part="SV1" gate="G$1" pin="24"/>
<wire x1="17.78" y1="73.66" x2="12.7" y2="73.66" width="0.1524" layer="91"/>
</segment>
</net>
<net name="N$16" class="0">
<segment>
<pinref part="T1" gate="G1" pin="B"/>
<wire x1="38.1" y1="48.26" x2="15.24" y2="48.26" width="0.1524" layer="91"/>
<wire x1="15.24" y1="48.26" x2="15.24" y2="71.12" width="0.1524" layer="91"/>
<pinref part="SV1" gate="G$1" pin="26"/>
<wire x1="15.24" y1="71.12" x2="12.7" y2="71.12" width="0.1524" layer="91"/>
</segment>
</net>
<net name="GND2" class="0">
<segment>
<pinref part="SV1" gate="G$1" pin="6"/>
<wire x1="10.16" y1="96.52" x2="12.7" y2="96.52" width="0.1524" layer="91"/>
</segment>
<segment>
<pinref part="SV1" gate="G$1" pin="14"/>
<wire x1="10.16" y1="86.36" x2="12.7" y2="86.36" width="0.1524" layer="91"/>
</segment>
<segment>
<pinref part="SV1" gate="G$1" pin="20"/>
<wire x1="10.16" y1="78.74" x2="12.7" y2="78.74" width="0.1524" layer="91"/>
</segment>
<segment>
<pinref part="SV1" gate="G$1" pin="25"/>
<wire x1="-2.54" y1="71.12" x2="0" y2="71.12" width="0.1524" layer="91"/>
</segment>
<segment>
<pinref part="SV1" gate="G$1" pin="9"/>
<wire x1="0" y1="91.44" x2="-2.54" y2="91.44" width="0.1524" layer="91"/>
</segment>
</net>
</nets>
</sheet>
</sheets>
</schematic>
</drawing>
</eagle>
